<?xml version="1.0" encoding="utf-8"?>
<!-- Generator: Adobe Illustrator 20.0.0, SVG Export Plug-In . SVG Version: 6.00 Build 0)  -->
<svg version="1.1" id="Layer_1" xmlns="http://www.w3.org/2000/svg" xmlns:xlink="http://www.w3.org/1999/xlink" x="0px" y="0px"
	 viewBox="0 0 728 90" style="enable-background:new 0 0 728 90;" xml:space="preserve">
<style type="text/css">
	.st0{fill:#E86E25;}
	.st1{fill:#FFFFFF;}
</style>
<g transform="matrix( 1, 0, 0, 1, 0,-109.95) ">
	<g>
		<g id="Layer0_0_MEMBER_0_MEMBER_0_FILL">
			<path class="st0" d="M111.6,181.5l0.3-0.4l-0.8-0.4l0.8-0.3l-0.3-0.5l-0.7,0.5l0.1-0.8h-0.6l0.1,0.8l-0.7-0.5l-0.3,0.5l0.8,0.3
				l-0.8,0.4l0.3,0.4l0.7-0.4l-0.1,0.8h0.6l-0.1-0.8L111.6,181.5z"/>
		</g>
	</g>
</g>
<g transform="matrix( 1, 0, 0, 1, 0,-109.95) ">
	<g>
		<g id="Layer0_0_MEMBER_0_MEMBER_1_FILL">
			<path class="st0" d="M115.9,182l-0.8-2.3c-0.1-0.2-0.2-0.3-0.3-0.3c-0.2,0-0.3,0.1-0.4,0.3l-0.8,2.3l-0.6-2.4h-0.8l1,3.8
				c0.1,0.2,0.2,0.3,0.3,0.3c0.2,0,0.3-0.1,0.3-0.2l0.9-2.5l0.8,2.5c0.1,0.1,0.2,0.2,0.3,0.2c0.2,0,0.3-0.1,0.4-0.3l0.9-3.8h-0.8
				L115.9,182z"/>
		</g>
	</g>
</g>
<g transform="matrix( 1, 0, 0, 1, 0,-109.95) ">
	<g>
		<g id="Layer0_0_MEMBER_0_MEMBER_2_FILL">
			<path class="st0" d="M121.4,179.6h-0.8v1.6h-2v-1.6h-0.8v4h0.8v-1.7h2v1.7h0.8V179.6z"/>
		</g>
	</g>
</g>
<g transform="matrix( 1, 0, 0, 1, 0,-109.95) ">
	<g>
		<g id="Layer0_0_MEMBER_0_MEMBER_3_FILL">
			<path class="st0" d="M122.6,183.6h0.8v-4h-0.8V183.6z"/>
		</g>
	</g>
</g>
<g transform="matrix( 1, 0, 0, 1, 0,-109.95) ">
	<g>
		<g id="Layer0_0_MEMBER_0_MEMBER_4_FILL">
			<path class="st0" d="M124.8,183.6h2.5v-0.7h-2.1v-3.3h-0.8v3.6C124.4,183.4,124.6,183.6,124.8,183.6z"/>
		</g>
	</g>
</g>
<g transform="matrix( 1, 0, 0, 1, 0,-109.95) ">
	<g>
		<g id="Layer0_0_MEMBER_0_MEMBER_5_FILL">
			<path class="st0" d="M129.4,181.9h0.8c0.2,0,0.4-0.1,0.4-0.4c0-0.2-0.1-0.3-0.4-0.3h-0.8c-0.5,0-0.7-0.2-0.7-0.6
				c0-0.3,0.3-0.5,0.9-0.5l1.3,0.1l0.1-0.6l-1.3-0.1c-1.1,0-1.7,0.4-1.7,1.1c0,0.3,0.2,0.6,0.5,0.8c-0.4,0.2-0.5,0.5-0.6,0.9
				c0,0.8,0.6,1.3,1.8,1.3c0.5,0,0.9-0.1,1.4-0.2l-0.1-0.6c-0.4,0.1-0.8,0.1-1.3,0.1c-0.7,0-1.1-0.2-1.1-0.6
				C128.6,182,128.8,181.9,129.4,181.9z"/>
		</g>
	</g>
</g>
<g transform="matrix( 1, 0, 0, 1, 0,-109.95) ">
	<g>
		<g id="Layer0_0_MEMBER_0_MEMBER_6_FILL">
			<path class="st0" d="M136.3,182.4c0-0.3-0.1-0.5-0.3-0.6c-0.1-0.1-0.4-0.3-0.9-0.6c-0.7-0.3-1.1-0.6-1.1-0.8
				c0-0.2,0.3-0.4,0.8-0.4c0.4,0,0.9,0.1,1.3,0.2l0.1-0.6c-0.5-0.1-0.9-0.2-1.4-0.2c-1.1,0-1.6,0.3-1.6,1.1c0,0.5,0.4,0.9,1.2,1.2
				c0.7,0.4,1.1,0.6,1.1,0.8c0,0.3-0.3,0.4-0.8,0.4c-0.5,0-1-0.1-1.4-0.3l-0.1,0.6c0.5,0.2,1,0.3,1.6,0.3
				C135.7,183.6,136.3,183.2,136.3,182.4z"/>
		</g>
	</g>
</g>
<g transform="matrix( 1, 0, 0, 1, 0,-109.95) ">
	<g>
		<g id="Layer0_0_MEMBER_0_MEMBER_7_FILL">
			<path class="st0" d="M140.6,181.9v-2.4h-0.8v2.4c0,0.6-0.3,0.9-0.9,0.9c-0.7,0-1-0.3-1-0.9v-2.4h-0.8v2.4c0,0.4,0.1,0.8,0.4,1.2
				c0.3,0.3,0.8,0.5,1.3,0.5c0.5,0,0.9-0.2,1.3-0.5C140.4,182.8,140.6,182.4,140.6,181.9z"/>
		</g>
	</g>
</g>
<g transform="matrix( 1, 0, 0, 1, 0,-109.95) ">
	<g>
		<g id="Layer0_0_MEMBER_0_MEMBER_8_FILL">
			<path class="st0" d="M141.6,179.9v3.6h0.8v-1.4h1.3c0.4,0,0.7-0.1,1-0.4c0.2-0.2,0.3-0.5,0.3-0.9s-0.1-0.7-0.3-0.9
				c-0.3-0.2-0.6-0.3-1-0.3h-1.7C141.7,179.6,141.6,179.7,141.6,179.9 M143.5,180.2c0.4,0,0.6,0.2,0.6,0.6c0,0.4-0.2,0.6-0.6,0.6
				h-1.1v-1.3H143.5z"/>
		</g>
	</g>
</g>
<g transform="matrix( 1, 0, 0, 1, 0,-109.95) ">
	<g>
		<g id="Layer0_0_MEMBER_0_MEMBER_9_FILL">
			<path class="st0" d="M146.4,183.6v-1.4h1.3c0.4,0,0.7-0.1,1-0.4c0.2-0.2,0.3-0.5,0.3-0.9s-0.1-0.7-0.3-0.9
				c-0.3-0.2-0.6-0.3-1-0.3h-1.7c-0.2,0-0.3,0.1-0.3,0.4v3.6H146.4 M146.4,181.4v-1.3h1.1c0.4,0,0.6,0.2,0.6,0.6
				c0,0.4-0.2,0.6-0.6,0.6H146.4z"/>
		</g>
	</g>
</g>
<g transform="matrix( 1, 0, 0, 1, 0,-109.95) ">
	<g>
		<g id="Layer0_0_MEMBER_0_MEMBER_10_FILL">
			<path class="st0" d="M149.9,183.6h2.5v-0.7h-2.1v-3.3h-0.8v3.6C149.6,183.4,149.7,183.6,149.9,183.6z"/>
		</g>
	</g>
</g>
<g transform="matrix( 1, 0, 0, 1, 0,-109.95) ">
	<g>
		<g id="Layer0_0_MEMBER_0_MEMBER_11_FILL">
			<path class="st0" d="M153.2,183.6h0.8v-4h-0.8V183.6z"/>
		</g>
	</g>
</g>
<g transform="matrix( 1, 0, 0, 1, 0,-109.95) ">
	<g>
		<g id="Layer0_0_MEMBER_0_MEMBER_12_FILL">
			<path class="st0" d="M156.7,182.9c-0.7,0-1.1-0.2-1.1-0.6c0-0.3,0.3-0.5,0.8-0.5h0.9c0.2,0,0.3-0.1,0.3-0.4
				c0-0.2-0.1-0.3-0.3-0.3h-0.9c-0.5,0-0.7-0.2-0.7-0.6c0-0.3,0.3-0.5,0.9-0.5l1.3,0.1l0.1-0.6l-1.3-0.1c-1.1,0-1.7,0.4-1.7,1.1
				c0,0.3,0.2,0.6,0.4,0.8c-0.4,0.2-0.6,0.5-0.6,0.9c0,0.8,0.6,1.3,1.8,1.3c0.5,0,1-0.1,1.4-0.2l-0.1-0.6
				C157.6,182.9,157.1,182.9,156.7,182.9z"/>
		</g>
	</g>
</g>
<g transform="matrix( 1, 0, 0, 1, 0,-109.95) ">
	<g>
		<g id="Layer0_0_MEMBER_0_MEMBER_13_FILL">
			<path class="st0" d="M161.7,181.8c-0.1-0.1-0.4-0.3-0.9-0.6c-0.7-0.3-1.1-0.6-1.1-0.8c0-0.2,0.3-0.4,0.8-0.4
				c0.4,0,0.9,0.1,1.3,0.2l0.1-0.6c-0.5-0.1-0.9-0.2-1.4-0.2c-1.1,0-1.6,0.3-1.6,1.1c0,0.5,0.4,0.9,1.2,1.2c0.8,0.4,1.1,0.7,1.1,0.8
				c0,0.3-0.3,0.4-0.9,0.4c-0.5,0-0.9-0.1-1.4-0.3l-0.1,0.6c0.5,0.2,1,0.3,1.6,0.3c1.1,0,1.6-0.4,1.6-1.2
				C162,182.2,161.9,182,161.7,181.8z"/>
		</g>
	</g>
</g>
<g transform="matrix( 1, 0, 0, 1, 0,-109.95) ">
	<g>
		<g id="Layer0_0_MEMBER_0_MEMBER_14_FILL">
			<path class="st0" d="M164.6,183.6h2.5v-0.7h-2.1v-3.3h-0.8v3.6C164.2,183.4,164.3,183.6,164.6,183.6z"/>
		</g>
	</g>
</g>
<g transform="matrix( 1, 0, 0, 1, 0,-109.95) ">
	<g>
		<g id="Layer0_0_MEMBER_0_MEMBER_15_FILL">
			<path class="st0" d="M169.5,179.5c-0.1,0-0.2,0.1-0.3,0.2l-1.6,3.9h0.8l0.4-0.9h1.6l0.3,0.9h0.8l-1.5-3.9
				C169.7,179.6,169.6,179.5,169.5,179.5 M168.9,182.1l0.6-1.4l0.6,1.4H168.9z"/>
		</g>
	</g>
</g>
<g transform="matrix( 1, 0, 0, 1, 0,-109.95) ">
	<g>
		<g id="Layer0_0_MEMBER_0_MEMBER_16_FILL">
			<path class="st0" d="M175,182.4c0-0.3-0.1-0.5-0.3-0.6c-0.1-0.1-0.4-0.3-0.9-0.6c-0.7-0.3-1.1-0.6-1.1-0.8c0-0.2,0.3-0.4,0.8-0.4
				c0.4,0,0.9,0.1,1.3,0.2l0.1-0.6c-0.5-0.1-0.9-0.2-1.4-0.2c-1.1,0-1.6,0.3-1.6,1.1c0,0.5,0.4,0.9,1.2,1.2c0.8,0.4,1.1,0.7,1.1,0.8
				c0,0.3-0.3,0.4-0.9,0.4c-0.5,0-0.9-0.1-1.4-0.3l-0.1,0.6c0.5,0.2,1,0.3,1.6,0.3C174.4,183.6,175,183.2,175,182.4z"/>
		</g>
	</g>
</g>
<g transform="matrix( 1, 0, 0, 1, 0,-109.95) ">
	<g>
		<g id="Layer0_0_MEMBER_0_MEMBER_17_FILL">
			<path class="st0" d="M177.5,180.2h1.3v-0.6h-3.4v0.6h1.3v3.4h0.8V180.2z"/>
		</g>
	</g>
</g>
<g transform="matrix( 1, 0, 0, 1, 0,-109.95) ">
	<g>
		<g id="Layer0_0_MEMBER_1_MEMBER_0_FILL">
			<path class="st1" d="M122.4,145.3c1.3-0.8,2.2-1.7,2.8-2.9v-4.8h-3.8v4.1c-0.8,0.9-2,1.4-3.5,1.4c-1.6,0-2.8-0.5-3.8-1.6
				c-0.9-1-1.4-2.3-1.4-3.8c0-3.5,2-5.3,5.8-5.3c1.3,0,2.7,0.3,4.3,0.8l0.8-3.2c-1.8-0.6-3.6-0.9-5.4-0.9c-2.8,0-5,0.8-6.7,2.4
				c-1.7,1.6-2.6,3.7-2.6,6.3c0,2.5,0.9,4.6,2.7,6.3c1.7,1.6,3.8,2.4,6.3,2.4C119.5,146.4,121,146,122.4,145.3z"/>
		</g>
	</g>
</g>
<g transform="matrix( 1, 0, 0, 1, 0,-109.95) ">
	<g>
		<g id="Layer0_0_MEMBER_1_MEMBER_1_FILL">
			<path class="st1" d="M138.6,136h-3.5c-0.7,0-1.3-0.2-1.8-0.4c-0.6-0.3-0.9-0.8-0.9-1.4c0-1.3,1.1-1.9,3.2-1.9
				c2.2,0,4.2,0.2,6,0.5l0.3-3.1c-1.9-0.4-3.9-0.6-6.1-0.6c-4.8,0-7.3,1.7-7.3,4.9c0,1.2,0.6,2.4,1.7,3.4c-1.5,1-2.3,2.3-2.3,3.8
				c0,1.7,0.7,3,2,3.9c1.3,0.9,3.3,1.3,5.8,1.3c2.2,0,4.2-0.2,6.1-0.6l-0.4-3.1c-1.9,0.4-3.8,0.6-5.8,0.6c-2.7,0-4-0.7-4-2.1
				c0-1.3,1.1-1.9,3.2-1.9h3.5c0.4,0,0.8-0.2,1.2-0.5c0.3-0.3,0.5-0.7,0.5-1.1s-0.2-0.8-0.5-1.2C139.5,136.2,139.1,136,138.6,136z"
				/>
		</g>
	</g>
</g>
<g transform="matrix( 1, 0, 0, 1, 0,-109.95) ">
	<g>
		<g id="Layer0_0_MEMBER_1_MEMBER_2_FILL">
			<path class="st1" d="M153.4,132.6h5.5v-3.4h-14.8v3.4h5.5v13.5h3.8V132.6z"/>
		</g>
	</g>
</g>
<g transform="matrix( 1, 0, 0, 1, 0,-109.95) ">
	<g>
		<g id="Layer0_0_MEMBER_1_MEMBER_3_FILL">
			<path class="st1" d="M174.9,130.1c-0.3-0.7-0.8-1-1.6-1c-0.8,0-1.3,0.3-1.6,1l-6.6,16h3.8l1.3-3.4h6.2l1.3,3.4h3.8L174.9,130.1
				 M173.3,134.4l2,5.4h-3.9L173.3,134.4z"/>
		</g>
	</g>
</g>
<g transform="matrix( 1, 0, 0, 1, 0,-109.95) ">
	<g>
		<g id="Layer0_0_MEMBER_1_MEMBER_4_FILL">
			<path class="st1" d="M194.5,127.7v1.6c-1.8,0.1-3.2,0.6-4,1.3c-0.8,0.7-1.2,1.9-1.2,3.4c0,1.1,0.4,2.1,1.2,2.8
				c0.6,0.6,1.7,1.3,3.3,2.1c2.2,1.1,3.4,1.6,3.4,1.6c0.7,0.4,1.1,0.8,1.1,1.2c0,1-1,1.5-3.1,1.5c-1.7,0-3.6-0.3-5.8-1l-0.7,2.9
				c1.8,0.6,3.5,1,5.1,1.1v1.6c0,0.4,0.1,0.7,0.4,0.9c0.3,0.3,0.6,0.4,1,0.4s0.7-0.1,0.9-0.4c0.3-0.3,0.4-0.6,0.4-0.9v-1.6
				c3.7-0.3,5.6-1.9,5.6-4.8c0-1.2-0.5-2.1-1.4-2.9c-0.5-0.4-1.8-1.1-3.7-2.1c-1.9-1-3-1.5-3.3-1.7c-0.5-0.3-0.8-0.7-0.8-1.1
				c0-0.4,0.2-0.7,0.6-0.9c0.4-0.2,1.2-0.3,2.3-0.3c1.5,0,3.2,0.2,5.3,0.7l0.6-2.9c-1.4-0.4-2.9-0.7-4.6-0.8v-1.6
				c0-0.4-0.1-0.7-0.4-0.9c-0.3-0.3-0.6-0.4-0.9-0.4c-0.4,0-0.7,0.1-1,0.4C194.6,127,194.5,127.3,194.5,127.7z"/>
		</g>
	</g>
</g>
<g transform="matrix( 1, 0, 0, 1, 0,-109.95) ">
	<g>
		<g id="Layer0_0_MEMBER_1_MEMBER_5_FILL">
			<path class="st1" d="M216.9,132.4v-3.1h-9.2c-0.5,0-1,0.2-1.3,0.6c-0.4,0.4-0.6,0.8-0.6,1.3v6c0,0.4,0.1,0.8,0.4,1.1
				s0.7,0.4,1.1,0.4h3c2.5,0,3.8,0.8,3.8,2.3c0,1.6-1.3,2.4-3.9,2.4c-1.5,0-3.1-0.2-4.6-0.6l-0.6,2.9c1.6,0.5,3.5,0.8,5.5,0.8
				c2.3,0,4.2-0.5,5.5-1.6c1.2-1,1.8-2.3,1.8-4c0-1.6-0.6-2.8-1.7-3.8c-1.2-0.9-2.7-1.4-4.6-1.4h-2.3v-3.3H216.9z"/>
		</g>
	</g>
</g>
<g transform="matrix( 1, 0, 0, 1, 0,-109.95) ">
	<g>
		<g id="Layer0_0_MEMBER_1_MEMBER_6_FILL">
			<path class="st1" d="M220.6,137.7c0,2.5,0.5,4.6,1.5,6.1c1.1,1.7,2.8,2.6,5.1,2.6s4-0.9,5.1-2.6c1-1.5,1.5-3.6,1.5-6.1
				c0-2.5-0.5-4.6-1.5-6.1c-1.2-1.7-2.9-2.6-5.1-2.6s-4,0.9-5.1,2.6C221.1,133.1,220.6,135.2,220.6,137.7 M227.3,132.2
				c2,0,3,1.8,3,5.5c0,3.7-1,5.6-3,5.6s-3-1.8-3-5.6C224.3,134,225.3,132.2,227.3,132.2z"/>
		</g>
	</g>
</g>
<g transform="matrix( 1, 0, 0, 1, 0,-109.95) ">
	<g>
		<g id="Layer0_0_MEMBER_1_MEMBER_7_FILL">
			<path class="st1" d="M256.6,133.8c0-1.5-0.5-2.6-1.6-3.4c-1-0.8-2.5-1.1-4.3-1.1h-5.5c-0.5,0-1,0.2-1.3,0.6
				c-0.4,0.4-0.6,0.8-0.6,1.3v13.1c0,0.5,0.2,1,0.6,1.4c0.4,0.4,0.8,0.5,1.3,0.5h6.7c1.6,0,3-0.5,4.1-1.4c1.1-1,1.6-2.2,1.6-3.6
				c0-1.7-0.9-3.1-2.8-4C256,136.1,256.6,135,256.6,133.8 M250.6,132.4c0.6,0,1.1,0.2,1.5,0.5c0.4,0.3,0.6,0.8,0.6,1.4
				c0,1.3-0.8,1.9-2.3,1.9h-3.3v-3.8H250.6 M251.6,143.1h-4.5v-4.1h4.5c0.6,0,1.1,0.2,1.5,0.6c0.4,0.4,0.6,0.9,0.6,1.5
				c0,0.6-0.2,1.1-0.6,1.4C252.8,142.9,252.3,143.1,251.6,143.1z"/>
		</g>
	</g>
</g>
<g transform="matrix( 1, 0, 0, 1, 0,-109.95) ">
	<g>
		<g id="Layer0_0_MEMBER_1_MEMBER_8_FILL">
			<path class="st1" d="M260,137.8c0,2.4,0.8,4.5,2.4,6.1c1.6,1.7,3.7,2.5,6.3,2.5c2.5,0,4.6-0.8,6.3-2.5c1.6-1.7,2.4-3.7,2.4-6.1
				c0-2.5-0.8-4.5-2.4-6.2c-1.6-1.7-3.7-2.6-6.3-2.6c-2.6,0-4.7,0.8-6.3,2.6C260.8,133.2,260,135.3,260,137.8 M268.7,132.4
				c1.5,0,2.7,0.5,3.6,1.5c0.9,1,1.3,2.3,1.3,3.9s-0.4,2.8-1.3,3.8c-0.9,1-2.1,1.5-3.6,1.5c-1.5,0-2.8-0.5-3.7-1.5
				c-0.9-1-1.3-2.2-1.3-3.8s0.4-2.9,1.3-3.9C265.9,132.9,267.2,132.4,268.7,132.4z"/>
		</g>
	</g>
</g>
<g transform="matrix( 1, 0, 0, 1, 0,-109.95) ">
	<g>
		<g id="Layer0_0_MEMBER_1_MEMBER_9_FILL">
			<path class="st1" d="M285,134.6c-0.6-0.4-1-0.8-1-1.2c0-0.4,0.3-0.7,0.8-0.9c0.5-0.2,1.3-0.3,2.5-0.3c1.7,0,3.6,0.2,5.6,0.6
				l0.6-3.1c-2.1-0.6-4.1-0.9-6.3-0.9c-2.4,0-4.2,0.4-5.3,1.1c-1.1,0.7-1.7,1.9-1.7,3.6c0,1.1,0.4,2.1,1.3,2.9
				c0.7,0.6,1.9,1.3,3.6,2.1c1.1,0.5,2.3,1.1,3.6,1.7c0.8,0.4,1.3,0.8,1.3,1.2c0,1-1.1,1.6-3.5,1.6c-1.9,0-4-0.3-6.2-0.9l-0.7,2.9
				c2.4,0.8,4.7,1.2,6.9,1.2c2.1,0,3.7-0.4,5-1.1c1.5-0.9,2.3-2.2,2.3-3.9c0-1.3-0.5-2.3-1.5-3c-0.4-0.3-1.7-1-3.9-2.1
				C286.3,135.4,285.2,134.8,285,134.6z"/>
		</g>
	</g>
</g>
<g transform="matrix( 1, 0, 0, 1, 0,-109.95) ">
	<g>
		<g id="Layer0_0_MEMBER_1_MEMBER_10_FILL">
			<path class="st1" d="M304.6,132.6h5.6v-3.4h-14.9v3.4h5.6v13.5h3.8V132.6z"/>
		</g>
	</g>
</g>
<g transform="matrix( 1, 0, 0, 1, 0,-109.95) ">
	<g>
		<g id="Layer0_0_MEMBER_1_MEMBER_11_FILL">
			<path class="st1" d="M326.4,143.9c1.6-1.7,2.4-3.7,2.4-6.1c0-2.5-0.8-4.5-2.4-6.2c-1.6-1.7-3.7-2.6-6.3-2.6
				c-2.5,0-4.6,0.8-6.3,2.6c-1.6,1.7-2.4,3.7-2.4,6.2c0,2.4,0.8,4.5,2.4,6.1c1.7,1.7,3.8,2.5,6.3,2.5
				C322.6,146.4,324.7,145.6,326.4,143.9 M320,132.4c1.5,0,2.8,0.5,3.7,1.5c0.9,1,1.3,2.3,1.3,3.9s-0.4,2.8-1.3,3.8
				c-0.9,1-2.1,1.5-3.7,1.5c-1.5,0-2.7-0.5-3.6-1.5c-0.9-1-1.3-2.2-1.3-3.8s0.4-2.9,1.3-3.9C317.4,132.9,318.5,132.4,320,132.4z"/>
		</g>
	</g>
</g>
<g transform="matrix( 1, 0, 0, 1, 0,-109.95) ">
	<g>
		<g id="Layer0_0_MEMBER_1_MEMBER_12_FILL">
			<path class="st1" d="M334,129.1c-0.5,0-1,0.2-1.4,0.5c-0.4,0.4-0.6,0.8-0.6,1.4v15.1h3.8v-10.3l8.4,9.8c0.4,0.5,1,0.7,1.7,0.6
				c0.5,0,0.9-0.2,1.2-0.6c0.3-0.4,0.4-0.8,0.4-1.3v-15.1h-3.8v10.3l-8.4-9.8C335,129.3,334.5,129.1,334,129.1z"/>
		</g>
	</g>
</g>
<g transform="matrix( 1, 0, 0, 1, 0,-109.95) ">
	<g>
		<g id="Layer0_0_MEMBER_1_MEMBER_13_FILL">
			<path class="st1" d="M119.1,155.1h-6.9c-0.5,0-1,0.2-1.3,0.6c-0.4,0.4-0.6,0.8-0.6,1.3v15h3.9v-5.8h5c1.6,0,3-0.6,4.1-1.7
				c1.1-1.1,1.6-2.4,1.6-3.9c0-1.5-0.5-2.8-1.6-3.9C122.1,155.7,120.7,155.1,119.1,155.1 M118.5,158.3c0.7,0,1.2,0.2,1.7,0.7
				c0.5,0.5,0.7,1.1,0.7,1.8c0,0.7-0.2,1.3-0.7,1.8c-0.5,0.5-1,0.8-1.7,0.8h-4.4v-5H118.5z"/>
		</g>
	</g>
</g>
<g transform="matrix( 1, 0, 0, 1, 0,-109.95) ">
	<g>
		<g id="Layer0_0_MEMBER_1_MEMBER_14_FILL">
			<path class="st1" d="M127.6,172.1h3.8v-16.9h-3.8V172.1z"/>
		</g>
	</g>
</g>
<g transform="matrix( 1, 0, 0, 1, 0,-109.95) ">
	<g>
		<g id="Layer0_0_MEMBER_1_MEMBER_15_FILL">
			<path class="st1" d="M149.4,172.1v-3.3h-9.1l8.5-10.8c0.3-0.3,0.4-0.7,0.4-1.1c0-0.5-0.2-0.9-0.6-1.3c-0.3-0.3-0.7-0.5-1.2-0.5
				h-12v3.3h8.5l-8.5,10.8c-0.2,0.3-0.3,0.7-0.3,1.1c0,0.5,0.2,0.9,0.5,1.3c0.3,0.3,0.7,0.5,1.2,0.5H149.4z"/>
		</g>
	</g>
</g>
<g transform="matrix( 1, 0, 0, 1, 0,-109.95) ">
	<g>
		<g id="Layer0_0_MEMBER_1_MEMBER_16_FILL">
			<path class="st1" d="M165.9,172.1v-3.3h-9.1l8.5-10.8c0.2-0.3,0.4-0.6,0.4-1.1c0-0.5-0.2-0.9-0.6-1.3c-0.4-0.3-0.8-0.5-1.2-0.5
				h-11.9v3.3h8.5l-8.5,10.8c-0.3,0.4-0.4,0.7-0.4,1.1c0,0.5,0.2,0.9,0.6,1.3c0.4,0.3,0.8,0.5,1.3,0.5H165.9z"/>
		</g>
	</g>
</g>
<g transform="matrix( 1, 0, 0, 1, 0,-109.95) ">
	<g>
		<g id="Layer0_0_MEMBER_1_MEMBER_17_FILL">
			<path class="st1" d="M177.8,156.1c-0.3-0.7-0.8-1.1-1.6-1.1c-0.8,0-1.3,0.3-1.6,1.1l-6.6,16h3.8l1.4-3.4h6.1l1.3,3.4h3.8
				L177.8,156.1 M178.1,165.7h-3.9l2-5.3L178.1,165.7z"/>
		</g>
	</g>
</g>
<g transform="matrix( 1, 0, 0, 1, 0,-109.95) ">
	<g>
		<g id="Layer0_0_MEMBER_1_MEMBER_18_FILL">
			<path class="st1" d="M200.3,168.9c-1.6,0-2.8-0.5-3.8-1.6c-0.9-1-1.4-2.2-1.4-3.8c0-3.5,1.9-5.3,5.8-5.3c1.3,0,2.7,0.3,4.4,0.8
				l0.8-3.2c-1.7-0.7-3.6-1-5.4-1c-2.8,0-5,0.8-6.7,2.4c-1.7,1.6-2.6,3.7-2.6,6.4c0,2.5,0.9,4.6,2.6,6.3c1.7,1.6,3.8,2.5,6.4,2.5
				c1.6,0,3.1-0.4,4.4-1.2c1.3-0.7,2.2-1.7,2.8-2.8v-4.9h-3.8v4.2C203,168.5,201.8,168.9,200.3,168.9z"/>
		</g>
	</g>
</g>
<g transform="matrix( 1, 0, 0, 1, 0,-109.95) ">
	<g>
		<g id="Layer0_0_MEMBER_1_MEMBER_19_FILL">
			<path class="st1" d="M211.4,172.1h3.8v-16.9h-3.8V172.1z"/>
		</g>
	</g>
</g>
<g transform="matrix( 1, 0, 0, 1, 0,-109.95) ">
	<g>
		<g id="Layer0_0_MEMBER_1_MEMBER_20_FILL">
			<path class="st1" d="M223.8,158.4h9.1v-3.3h-11c-0.5,0-1,0.2-1.4,0.6c-0.4,0.4-0.6,0.8-0.6,1.3v15h3.8v-6.9h6.4
				c0.5,0,0.9-0.2,1.2-0.5c0.3-0.3,0.5-0.7,0.5-1.2c0-0.4-0.2-0.8-0.5-1.1c-0.3-0.3-0.7-0.5-1.2-0.5h-6.4V158.4z"/>
		</g>
	</g>
</g>
<g transform="matrix( 1, 0, 0, 1, 0,-109.95) ">
	<g>
		<g id="Layer0_0_MEMBER_1_MEMBER_21_FILL">
			<path class="st1" d="M234,155.1v3.4h5.5v13.6h3.8v-13.6h5.6v-3.4H234z"/>
		</g>
	</g>
</g>
<g transform="matrix( 1, 0, 0, 1, 0,-109.95) ">
	<g>
		<g id="Layer0_0_MEMBER_1_MEMBER_22_FILL">
			<path class="st1" d="M269.4,158.9l0.9-3.1c-1.5-0.6-3.1-0.9-4.9-0.9c-2.8,0-5.1,0.8-6.8,2.5c-1.7,1.6-2.6,3.7-2.6,6.3
				c0,2.5,0.9,4.6,2.6,6.3c1.8,1.7,4,2.5,6.8,2.5c1.8,0,3.4-0.3,4.8-0.9l-0.8-3.1c-1.1,0.4-2.3,0.6-3.6,0.6c-2,0-3.5-0.5-4.6-1.6
				c-1-1-1.4-2.2-1.4-3.8c0-1.5,0.5-2.8,1.4-3.8c1.1-1,2.6-1.6,4.6-1.6C267,158.3,268.2,158.5,269.4,158.9z"/>
		</g>
	</g>
</g>
<g transform="matrix( 1, 0, 0, 1, 0,-109.95) ">
	<g>
		<g id="Layer0_0_MEMBER_1_MEMBER_23_FILL">
			<path class="st1" d="M281.8,156.1c-0.3-0.7-0.8-1.1-1.6-1.1s-1.3,0.3-1.6,1.1l-6.6,16h3.8l1.3-3.4h6.2l1.3,3.4h3.8L281.8,156.1
				 M282.1,165.7h-3.9l1.9-5.3L282.1,165.7z"/>
		</g>
	</g>
</g>
<g transform="matrix( 1, 0, 0, 1, 0,-109.95) ">
	<g>
		<g id="Layer0_0_MEMBER_1_MEMBER_24_FILL">
			<path class="st1" d="M305,163.5c0.6-0.9,0.9-1.8,0.9-2.9c0-1.5-0.5-2.8-1.5-3.9c-1.1-1.1-2.4-1.6-4-1.6h-7.6
				c-0.5,0-1,0.2-1.4,0.6c-0.4,0.4-0.5,0.8-0.5,1.3v15h3.8V166h4.1l3.5,6.1h4.4l-3.8-6.6C303.7,165,304.5,164.3,305,163.5
				 M299.6,158.3c0.7,0,1.2,0.2,1.7,0.6c0.5,0.4,0.7,1,0.7,1.7s-0.2,1.3-0.7,1.8c-0.5,0.5-1,0.7-1.7,0.7h-5v-4.8H299.6z"/>
		</g>
	</g>
</g>
<g transform="matrix( 1, 0, 0, 1, 0,-109.95) ">
	<g>
		<g id="Layer0_0_MEMBER_1_MEMBER_25_FILL">
			<path class="st1" d="M322.3,157.5c-2-1.6-4.6-2.4-8-2.4h-2c-0.5,0-1,0.2-1.4,0.6c-0.4,0.4-0.6,0.8-0.6,1.3v13.1
				c0,0.5,0.2,1,0.6,1.4c0.4,0.4,0.8,0.6,1.4,0.6h2c3.4,0,6-0.8,8-2.4c1.9-1.5,2.9-3.6,2.9-6.1C325.1,161.1,324.1,159,322.3,157.5
				 M315,158.6c1.8,0,3.2,0.4,4.3,1.2c1.2,0.9,1.9,2.2,1.9,3.9s-0.6,3-1.9,3.9c-1.1,0.8-2.5,1.2-4.3,1.2h-0.9v-10.1H315z"/>
		</g>
	</g>
</g>
<g transform="matrix( 1, 0, 0, 1, 0,-109.95) ">
	<g>
		<g id="Layer0_0_MEMBER_1_MEMBER_26_FILL">
			<path class="st1" d="M329.6,172.4c0.6,0,1.1-0.2,1.6-0.7c0.4-0.4,0.6-0.9,0.6-1.6c0-0.6-0.2-1.1-0.6-1.5c-0.4-0.4-1-0.7-1.6-0.7
				c-0.6,0-1.1,0.2-1.5,0.7c-0.4,0.4-0.6,0.9-0.6,1.5c0,0.6,0.2,1.1,0.6,1.6C328.6,172.1,329.1,172.4,329.6,172.4z"/>
		</g>
	</g>
</g>
<g transform="matrix( 1, 0, 0, 1, 0,-109.95) ">
	<g>
		<g id="Layer0_0_MEMBER_1_MEMBER_27_FILL">
			<path class="st1" d="M343.7,156.6l-2.9,2l0.4-3.5h-2.6l0.4,3.5l-2.9-2l-1.3,2.2l3.1,1.4l-3.1,1.4l1.3,2.2l2.9-2l-0.4,3.5h2.6
				l-0.4-3.5l2.9,2l1.3-2.2l-3.2-1.4l3.2-1.4L343.7,156.6z"/>
		</g>
	</g>
</g>
</svg>
