<?xml version="1.0" encoding="utf-8"?>
<!-- Generator: Adobe Illustrator 20.0.0, SVG Export Plug-In . SVG Version: 6.00 Build 0)  -->
<svg version="1.1" id="Layer_1" xmlns="http://www.w3.org/2000/svg" xmlns:xlink="http://www.w3.org/1999/xlink" x="0px" y="0px"
	 viewBox="0 0 728 90" style="enable-background:new 0 0 728 90;" xml:space="preserve">
<style type="text/css">
	.st0{fill:#E86E25;}
</style>
<g transform="matrix( 1, 0, 0, 1, 0,-109.95) ">
	<g>
		<g id="Layer0_0_MEMBER_0_MEMBER_0_FILL">
			<path class="st0" d="M392,154c-0.8-0.4-1.3-0.7-1.5-0.8c-0.2-0.2-0.4-0.4-0.4-0.6c0-0.4,0.5-0.7,1.5-0.7c0.8,0,1.5,0.1,2.4,0.3
				l0.2-1.1c-0.8-0.2-1.6-0.4-2.6-0.4c-1.9,0-2.9,0.6-2.9,1.9c0,0.5,0.2,0.9,0.6,1.3c0.3,0.3,0.8,0.6,1.6,0.9
				c0.9,0.4,1.4,0.7,1.7,0.8c0.3,0.2,0.4,0.4,0.4,0.6c0,0.5-0.5,0.8-1.5,0.8c-0.8,0-1.7-0.2-2.6-0.5l-0.3,1.1
				c0.9,0.4,1.9,0.6,2.9,0.6c0.9,0,1.6-0.2,2.1-0.6s0.8-0.9,0.8-1.6c0-0.5-0.2-0.9-0.5-1.3C393.5,154.7,392.9,154.4,392,154z"/>
		</g>
	</g>
</g>
<g transform="matrix( 1, 0, 0, 1, 0,-109.95) ">
	<g>
		<g id="Layer0_0_MEMBER_0_MEMBER_1_FILL">
			<path class="st0" d="M396,158.2h1.4v-7.3H396V158.2z"/>
		</g>
	</g>
</g>
<g transform="matrix( 1, 0, 0, 1, 0,-109.95) ">
	<g>
		<g id="Layer0_0_MEMBER_0_MEMBER_2_FILL">
			<path class="st0" d="M403,150.8c-1.2,0-2.2,0.3-2.9,1c-0.8,0.7-1.1,1.6-1.1,2.8c0,1.1,0.4,2,1.1,2.8c0.8,0.7,1.7,1.1,2.8,1.1
				c1.4,0,2.5-0.5,3-1.6v-2.1h-1.4v1.8c-0.4,0.4-1,0.6-1.7,0.6s-1.3-0.2-1.8-0.7c-0.5-0.4-0.7-1-0.7-1.8s0.3-1.4,0.8-1.9
				c0.5-0.5,1.2-0.7,2-0.7c0.6,0,1.3,0.1,2,0.4l0.3-1.1C404.8,150.9,404,150.8,403,150.8z"/>
		</g>
	</g>
</g>
<g transform="matrix( 1, 0, 0, 1, 0,-109.95) ">
	<g>
		<g id="Layer0_0_MEMBER_0_MEMBER_3_FILL">
			<path class="st0" d="M414,150.9h-1.4v4.8l-3.7-4.7c-0.2-0.2-0.4-0.3-0.6-0.3c-0.2,0-0.3,0.1-0.5,0.3c-0.1,0.1-0.2,0.3-0.2,0.5
				v6.7h1.4v-4.9l3.7,4.7c0.2,0.2,0.4,0.3,0.6,0.3c0.4-0.1,0.6-0.3,0.6-0.7V150.9z"/>
		</g>
	</g>
</g>
<g transform="matrix( 1, 0, 0, 1, 0,-109.95) ">
	<g>
		<g id="Layer0_0_MEMBER_0_MEMBER_4_FILL">
			<path class="st0" d="M424.7,150.9h-1.4v4.4c0,0.5-0.2,1-0.5,1.3c-0.3,0.3-0.8,0.5-1.3,0.5s-1-0.2-1.3-0.5
				c-0.3-0.3-0.5-0.8-0.5-1.3v-4.4h-1.4v4.4c0,0.8,0.3,1.6,0.9,2.1c0.6,0.6,1.4,0.9,2.4,0.9c1,0,1.8-0.3,2.4-0.9
				c0.6-0.6,0.9-1.3,0.9-2.1V150.9z"/>
		</g>
	</g>
</g>
<g transform="matrix( 1, 0, 0, 1, 0,-109.95) ">
	<g>
		<g id="Layer0_0_MEMBER_0_MEMBER_5_FILL">
			<path class="st0" d="M432.1,151.6c-0.5-0.5-1-0.7-1.8-0.7h-3c-0.5,0-0.7,0.2-0.7,0.7v6.6h1.4v-2.6h2.3c0.7,0,1.3-0.2,1.8-0.7
				c0.5-0.5,0.7-1,0.7-1.7C432.8,152.5,432.6,152,432.1,151.6 M431,152.4c0.2,0.2,0.4,0.5,0.4,0.8c0,0.3-0.1,0.6-0.4,0.9
				c-0.2,0.2-0.5,0.3-0.9,0.3H428v-2.3h2.1C430.5,152.1,430.8,152.2,431,152.4z"/>
		</g>
	</g>
</g>
<g transform="matrix( 1, 0, 0, 1, 0,-109.95) ">
	<g>
		<g id="Layer0_0_MEMBER_0_MEMBER_6_FILL">
			<path class="st0" d="M442.8,150.9h-1.4v4.8l-3.7-4.7c-0.2-0.2-0.3-0.3-0.5-0.3c-0.5,0-0.7,0.3-0.7,0.8v6.7h1.4v-4.9l3.7,4.7
				c0.1,0.2,0.4,0.3,0.6,0.3c0.4-0.1,0.6-0.3,0.6-0.7V150.9z"/>
		</g>
	</g>
</g>
<g transform="matrix( 1, 0, 0, 1, 0,-109.95) ">
	<g>
		<g id="Layer0_0_MEMBER_0_MEMBER_7_FILL">
			<path class="st0" d="M445.3,151.9c-0.7,0.7-1,1.6-1,2.7c0,1.1,0.4,1.9,1,2.6c0.7,0.7,1.6,1.1,2.7,1.1s2-0.4,2.7-1.1
				c0.7-0.7,1-1.6,1-2.6c0-1.1-0.4-2-1-2.7c-0.7-0.7-1.6-1.1-2.7-1.1S446,151.1,445.3,151.9 M448,152c0.7,0,1.3,0.2,1.7,0.7
				c0.4,0.5,0.6,1.1,0.6,1.9c0,0.7-0.2,1.3-0.6,1.8c-0.4,0.5-1,0.7-1.7,0.7s-1.3-0.2-1.7-0.7c-0.4-0.5-0.6-1.1-0.6-1.8
				c0-0.8,0.2-1.4,0.6-1.9C446.7,152.2,447.3,152,448,152z"/>
		</g>
	</g>
</g>
<g transform="matrix( 1, 0, 0, 1, 0,-109.95) ">
	<g>
		<g id="Layer0_0_MEMBER_0_MEMBER_8_FILL">
			<path class="st0" d="M457,150.8c-0.3,0-0.5,0.1-0.6,0.4l-1.5,4.2l-1.1-4.5h-1.4l1.8,6.9c0.1,0.3,0.3,0.5,0.6,0.5
				c0.3,0,0.5-0.2,0.7-0.4l1.5-4.5l1.5,4.5c0.1,0.3,0.3,0.4,0.6,0.4c0.4,0,0.6-0.2,0.7-0.5l1.8-6.9h-1.4l-1.1,4.5l-1.5-4.2
				C457.4,150.9,457.3,150.8,457,150.8z"/>
		</g>
	</g>
</g>
</svg>
