<?xml version="1.0" encoding="utf-8"?>
<!-- Generator: Adobe Illustrator 20.0.0, SVG Export Plug-In . SVG Version: 6.00 Build 0)  -->
<svg version="1.1" id="Layer_1" xmlns="http://www.w3.org/2000/svg" xmlns:xlink="http://www.w3.org/1999/xlink" x="0px" y="0px"
	 viewBox="0 0 320 50" style="enable-background:new 0 0 320 50;" xml:space="preserve">
<style type="text/css">
	.st0{fill:#E86E25;}
</style>
<g transform="matrix( 1, 0, 0, 1, -0.1,-69.7) ">
	<g>
		<g id="Layer0_0_MEMBER_0_FILL">
			<path class="st0" d="M18.5,85.8c-1.3-0.6-2-1-2.2-1.1c-0.4-0.3-0.6-0.5-0.6-0.8c0-0.5,0.7-0.8,2.1-0.8c1,0,2.2,0.1,3.6,0.4l0.4-2
				c-1.4-0.4-2.7-0.5-4-0.5c-1.5,0-2.7,0.2-3.4,0.7s-1.1,1.2-1.1,2.3c0,0.7,0.3,1.3,0.9,1.8c0.4,0.4,1.2,0.9,2.3,1.3
				c0.7,0.3,1.5,0.7,2.4,1.1c0.5,0.3,0.8,0.5,0.8,0.8c0,0.7-0.7,1-2.2,1c-1,0-2.3-0.2-3.9-0.6l-0.5,1.8c1.5,0.5,2.9,0.8,4.4,0.8
				c1.3,0,2.4-0.2,3.2-0.7c1-0.6,1.4-1.4,1.4-2.6c0-0.8-0.3-1.4-0.9-1.9C20.6,86.9,19.8,86.4,18.5,85.8z"/>
		</g>
	</g>
</g>
<g transform="matrix( 1, 0, 0, 1, -0.1,-69.7) ">
	<g>
		<g id="Layer0_0_MEMBER_1_FILL">
			<path class="st0" d="M24.3,92.1h2.4V81.3h-2.4V92.1z"/>
		</g>
	</g>
</g>
<g transform="matrix( 1, 0, 0, 1, -0.1,-69.7) ">
	<g>
		<g id="Layer0_0_MEMBER_2_FILL">
			<path class="st0" d="M39.2,86.6h-2.4v2.6c-0.5,0.6-1.2,0.9-2.2,0.9s-1.8-0.3-2.4-1c-0.6-0.6-0.9-1.4-0.9-2.4
				c0-2.3,1.2-3.4,3.7-3.4c0.8,0,1.7,0.2,2.8,0.5l0.5-2.1c-1.1-0.4-2.3-0.6-3.5-0.6c-1.8,0-3.2,0.5-4.3,1.5c-1.1,1-1.7,2.3-1.7,4
				c0,1.6,0.6,2.9,1.7,4c1.1,1,2.5,1.6,4,1.6c1,0,1.9-0.3,2.8-0.8c0.8-0.5,1.4-1.1,1.8-1.8v-3H39.2z"/>
		</g>
	</g>
</g>
<g transform="matrix( 1, 0, 0, 1, -0.1,-69.7) ">
	<g>
		<g id="Layer0_0_MEMBER_3_FILL">
			<path class="st0" d="M43.7,81.6c-0.2-0.3-0.5-0.4-0.9-0.4c-0.3,0-0.6,0.1-0.8,0.4c-0.2,0.2-0.4,0.5-0.4,0.8v9.7H44v-6.6l5.3,6.3
				c0.3,0.3,0.6,0.5,1.1,0.4c0.7-0.1,1.1-0.5,1.1-1.2v-9.6H49v6.5L43.7,81.6z"/>
		</g>
	</g>
</g>
<g transform="matrix( 1, 0, 0, 1, -0.1,-69.7) ">
	<g>
		<g id="Layer0_0_MEMBER_4_FILL">
			<path class="st0" d="M57.8,87.6c0,1.3,0.4,2.4,1.3,3.3c0.9,0.9,2.1,1.4,3.5,1.4s2.6-0.5,3.5-1.4s1.3-2,1.3-3.3v-6.3H65v6.3
				c0,0.8-0.2,1.4-0.7,1.8s-1,0.7-1.8,0.7c-0.7,0-1.3-0.2-1.8-0.7c-0.5-0.4-0.7-1-0.7-1.8v-6.3h-2.4v6.3H57.8z"/>
		</g>
	</g>
</g>
<g transform="matrix( 1, 0, 0, 1, -0.1,-69.7) ">
	<g>
		<g id="Layer0_0_MEMBER_5_FILL">
			<path class="st0" d="M75.8,81.3h-4.5c-0.3,0-0.6,0.1-0.8,0.3c-0.2,0.3-0.3,0.6-0.3,0.9V92h2.4v-3.7h3.3c1.1,0,1.9-0.4,2.6-1.1
				s1-1.5,1-2.5s-0.3-1.8-1-2.5C77.7,81.7,76.9,81.3,75.8,81.3 M72.6,83.3h2.8c0.4,0,0.8,0.2,1.1,0.4c0.3,0.3,0.4,0.7,0.4,1.2
				s-0.2,0.8-0.4,1.2c-0.3,0.3-0.7,0.4-1.1,0.4h-2.8V83.3z"/>
		</g>
	</g>
</g>
<g transform="matrix( 1, 0, 0, 1, -0.1,-69.7) ">
	<g>
		<g id="Layer0_0_MEMBER_6_FILL">
			<path class="st0" d="M92.9,83.4v-2.1h-7c-0.3,0-0.6,0.1-0.8,0.3c-0.2,0.3-0.3,0.6-0.3,0.9V92h2.4v-4.5h4.1c0.3,0,0.5-0.1,0.8-0.3
				c0.2-0.2,0.3-0.4,0.3-0.7c0-0.3-0.1-0.6-0.3-0.8s-0.5-0.3-0.8-0.3h-4.1v-2.2h5.7V83.4z"/>
		</g>
	</g>
</g>
<g transform="matrix( 1, 0, 0, 1, -0.1,-69.7) ">
	<g>
		<g id="Layer0_0_MEMBER_7_FILL">
			<path class="st0" d="M95.7,90.6c1,1.1,2.3,1.7,4,1.7c1.6,0,3-0.5,4-1.7c1-1,1.5-2.3,1.5-3.9s-0.5-2.9-1.5-3.9
				c-1-1.1-2.4-1.7-4-1.7s-2.9,0.6-4,1.7c-1,1-1.5,2.3-1.5,3.9S94.7,89.6,95.7,90.6 M99.7,90.1c-1,0-1.7-0.3-2.3-0.9
				c-0.5-0.6-0.8-1.5-0.8-2.5s0.3-1.8,0.8-2.4c0.6-0.6,1.3-0.9,2.3-0.9s1.7,0.3,2.3,0.9s0.9,1.4,0.9,2.4s-0.3,1.8-0.9,2.5
				C101.4,89.8,100.6,90.1,99.7,90.1z"/>
		</g>
	</g>
</g>
<g transform="matrix( 1, 0, 0, 1, -0.1,-69.7) ">
	<g>
		<g id="Layer0_0_MEMBER_8_FILL">
			<path class="st0" d="M116.8,84.8c0-1-0.3-1.8-1-2.4c-0.7-0.7-1.5-1-2.5-1h-4.8c-0.3,0-0.6,0.1-0.8,0.3c-0.2,0.3-0.3,0.6-0.3,0.9
				v9.5h2.4v-3.9h2.7l2.2,3.9h2.8l-2.4-4.2C116.2,87.2,116.8,86.2,116.8,84.8 M112.8,83.3c0.4,0,0.8,0.1,1.1,0.4
				c0.3,0.3,0.5,0.7,0.5,1.1s-0.2,0.8-0.5,1.1c-0.3,0.3-0.7,0.5-1.1,0.5h-3.2v-3.1H112.8z"/>
		</g>
	</g>
</g>
<g transform="matrix( 1, 0, 0, 1, -0.1,-69.7) ">
	<g>
		<g id="Layer0_0_MEMBER_9_FILL">
			<path class="st0" d="M21.9,98.8c-0.7-0.7-1.6-1.1-2.6-1.1h-4.5c-0.3,0-0.6,0.1-0.9,0.4c-0.2,0.2-0.3,0.5-0.3,0.8v9.5H16v-3.7h3.3
				c1.1,0,1.9-0.3,2.6-1.1c0.7-0.7,1-1.5,1-2.5C22.9,100.2,22.5,99.4,21.9,98.8 M18.8,99.7c0.4,0,0.8,0.1,1.1,0.4s0.5,0.7,0.5,1.1
				s-0.2,0.8-0.5,1.2c-0.3,0.3-0.7,0.5-1.1,0.5H16v-3.2H18.8z"/>
		</g>
	</g>
</g>
<g transform="matrix( 1, 0, 0, 1, -0.1,-69.7) ">
	<g>
		<g id="Layer0_0_MEMBER_10_FILL">
			<path class="st0" d="M33.5,107c1-1.1,1.5-2.4,1.5-3.9s-0.5-2.9-1.5-3.9c-1-1.1-2.4-1.7-4-1.7s-3,0.5-4,1.7c-1,1-1.5,2.3-1.5,3.9
				s0.5,2.9,1.5,3.9s2.4,1.6,4,1.6S32.5,108.1,33.5,107 M31.8,100.6c0.5,0.6,0.8,1.5,0.8,2.5s-0.3,1.8-0.8,2.4
				c-0.6,0.6-1.3,0.9-2.3,0.9s-1.7-0.3-2.3-0.9s-0.9-1.4-0.9-2.4s0.3-1.8,0.9-2.5c0.6-0.6,1.3-0.9,2.3-0.9S31.2,100,31.8,100.6z"/>
		</g>
	</g>
</g>
<g transform="matrix( 1, 0, 0, 1, -0.1,-69.7) ">
	<g>
		<g id="Layer0_0_MEMBER_11_FILL">
			<path class="st0" d="M38.3,97.7H36l2.5,10c0.2,0.6,0.6,0.8,1.1,0.8c0.6,0,0.9-0.2,1.1-0.7l2-5.9l2,5.9c0.2,0.5,0.5,0.7,1.1,0.7
				s1-0.3,1.1-0.8l2.5-10H47l-1.5,5.9l-1.8-5.3c-0.2-0.5-0.5-0.7-1-0.8c-0.5,0-0.8,0.3-1,0.8l-1.9,5.3L38.3,97.7z"/>
		</g>
	</g>
</g>
<g transform="matrix( 1, 0, 0, 1, -0.1,-69.7) ">
	<g>
		<g id="Layer0_0_MEMBER_12_FILL">
			<path class="st0" d="M59.3,97.9c-1.1-0.3-2.4-0.4-3.8-0.4c-3.1,0-4.6,1-4.6,3.2c0,0.8,0.4,1.5,1.1,2.2c-0.9,0.7-1.4,1.5-1.4,2.4
				c0,2.2,1.7,3.3,5,3.3c1.4,0,2.6-0.1,3.8-0.4l-0.3-2c-1.3,0.2-2.5,0.4-3.6,0.4c-1.7,0-2.5-0.4-2.5-1.3c0-0.8,0.7-1.3,2-1.3h2.3
				c0.3,0,0.5-0.1,0.8-0.3c0.2-0.2,0.3-0.4,0.3-0.8c0-0.3-0.1-0.5-0.3-0.7s-0.5-0.3-0.8-0.3H55c-1.1,0-1.7-0.4-1.7-1.1
				c0-0.8,0.7-1.2,2-1.2s2.6,0.1,3.8,0.3L59.3,97.9z"/>
		</g>
	</g>
</g>
<g transform="matrix( 1, 0, 0, 1, -0.1,-69.7) ">
	<g>
		<g id="Layer0_0_MEMBER_13_FILL">
			<path class="st0" d="M70.5,98.7c-0.7-0.7-1.5-1-2.6-1h-4.8c-0.3,0-0.6,0.1-0.9,0.4c-0.2,0.2-0.3,0.5-0.3,0.8v9.5h2.4v-3.8H67
				l2.2,3.8H72l-2.4-4.2c1.3-0.6,2-1.6,2-3C71.5,100.2,71.2,99.4,70.5,98.7 M67.4,99.7c0.4,0,0.8,0.1,1.1,0.4
				c0.3,0.3,0.4,0.7,0.4,1.1s-0.2,0.8-0.4,1.1c-0.3,0.3-0.7,0.4-1.1,0.4h-3.1v-3H67.4z"/>
		</g>
	</g>
</g>
<g transform="matrix( 1, 0, 0, 1, -0.1,-69.7) ">
	<g>
		<g id="Layer0_0_MEMBER_14_FILL">
			<path class="st0" d="M78.7,99.2c-1,1-1.6,2.3-1.6,3.9s0.5,2.9,1.6,3.9c1,1.1,2.4,1.6,4,1.6s3-0.5,4-1.6s1.5-2.4,1.5-3.9
				s-0.5-2.9-1.5-3.9c-1-1.1-2.4-1.7-4-1.7C81,97.5,79.7,98,78.7,99.2 M80.3,105.5c-0.6-0.6-0.8-1.4-0.8-2.4s0.3-1.8,0.8-2.5
				c0.6-0.6,1.3-0.9,2.3-0.9s1.7,0.3,2.3,0.9c0.5,0.6,0.8,1.5,0.8,2.5s-0.3,1.8-0.8,2.4c-0.6,0.6-1.3,0.9-2.3,0.9
				C81.7,106.4,80.9,106.1,80.3,105.5z"/>
		</g>
	</g>
</g>
<g transform="matrix( 1, 0, 0, 1, -0.1,-69.7) ">
	<g>
		<g id="Layer0_0_MEMBER_15_FILL">
			<path class="st0" d="M98.8,98.7c-0.7-0.7-1.5-1-2.5-1h-4.9c-0.3,0-0.6,0.1-0.8,0.4c-0.2,0.2-0.3,0.5-0.3,0.8v9.5h2.4v-3.8h2.6
				l2.2,3.8h2.8l-2.5-4.2c1.3-0.6,2-1.6,2-3C99.8,100.2,99.5,99.4,98.8,98.7 M96.9,100.1c0.3,0.3,0.4,0.7,0.4,1.1s-0.1,0.8-0.4,1.1
				s-0.7,0.4-1.1,0.4h-3.1v-3h3.1C96.2,99.7,96.6,99.8,96.9,100.1z"/>
		</g>
	</g>
</g>
<g transform="matrix( 1, 0, 0, 1, -0.1,-69.7) ">
	<g>
		<g id="Layer0_0_MEMBER_16_FILL">
			<path class="st0" d="M114.8,98.2c-1.1-0.4-2.2-0.7-3.5-0.7c-1.8,0-3.2,0.5-4.3,1.5c-1.1,1-1.7,2.3-1.7,4.1c0,1.6,0.6,2.9,1.7,4
				c1.1,1,2.4,1.5,4.1,1.5c1,0,2-0.3,2.8-0.8s1.4-1.1,1.8-1.8v-3.1h-2.4v2.7c-0.5,0.6-1.2,0.8-2.2,0.8s-1.8-0.3-2.4-1
				c-0.6-0.6-0.9-1.4-0.9-2.4c0-2.3,1.3-3.4,3.8-3.4c0.7,0,1.6,0.2,2.7,0.5L114.8,98.2z"/>
		</g>
	</g>
</g>
<g transform="matrix( 1, 0, 0, 1, -0.1,-69.7) ">
	<g>
		<g id="Layer0_0_MEMBER_17_FILL">
			<path class="st0" d="M122.9,98.3c-0.2-0.5-0.5-0.7-1-0.7s-0.8,0.2-1,0.7l-4.2,10.2h2.4l0.8-2.2h3.9l0.8,2.2h2.4L122.9,98.3
				 M121.9,101l1.3,3.4h-2.5L121.9,101z"/>
		</g>
	</g>
</g>
<g transform="matrix( 1, 0, 0, 1, -0.1,-69.7) ">
	<g>
		<g id="Layer0_0_MEMBER_18_FILL">
			<path class="st0" d="M136.9,98.1c-1.3-0.4-2.7-0.6-4-0.6c-1.5,0-2.6,0.2-3.3,0.7s-1.1,1.2-1.1,2.3c0,0.7,0.3,1.4,0.9,1.9
				c0.4,0.4,1.1,0.8,2.2,1.3c1.5,0.7,2.3,1.1,2.4,1.1c0.5,0.3,0.8,0.5,0.8,0.8c0,0.7-0.7,1-2.2,1c-1.2,0-2.5-0.2-3.9-0.6l-0.4,1.9
				c1.5,0.5,3,0.8,4.4,0.8c1.3,0,2.4-0.2,3.2-0.7c1-0.6,1.4-1.4,1.4-2.6c0-0.8-0.3-1.4-0.9-1.9c-0.2-0.2-1.1-0.6-2.5-1.3
				c-1.3-0.6-2.1-1-2.2-1.1c-0.4-0.2-0.6-0.5-0.6-0.8c0-0.5,0.7-0.8,2-0.8c0.7,0,1.9,0.1,3.6,0.4L136.9,98.1z"/>
		</g>
	</g>
</g>
<g transform="matrix( 1, 0, 0, 1, -0.1,-69.7) ">
	<g>
		<g id="Layer0_0_MEMBER_19_FILL">
			<path class="st0" d="M140.4,108.6c0.4,0,0.7-0.1,1-0.4s0.4-0.6,0.4-1s-0.1-0.7-0.4-1c-0.3-0.3-0.6-0.4-1-0.4s-0.7,0.1-0.9,0.4
				c-0.3,0.3-0.4,0.6-0.4,1s0.1,0.7,0.4,1C139.8,108.5,140.1,108.6,140.4,108.6z"/>
		</g>
	</g>
</g>
</svg>
