<?xml version="1.0" encoding="utf-8"?>
<!-- Generator: Adobe Illustrator 20.0.0, SVG Export Plug-In . SVG Version: 6.00 Build 0)  -->
<svg version="1.1" id="Layer_1" xmlns="http://www.w3.org/2000/svg" xmlns:xlink="http://www.w3.org/1999/xlink" x="0px" y="0px"
	 viewBox="0 0 300 250" style="enable-background:new 0 0 300 250;" xml:space="preserve">
<style type="text/css">
	.st0{fill:#E86E25;}
</style>
<g transform="matrix( 1, 0, 0, 1, 0,0) ">
	<g>
		<g id="Layer0_0_FILL">
			<path class="st0" d="M106.8,138.6c-0.1,0.1-0.2,0.2-0.2,0.3l-1.5,4.3l-1.2-4.7h-1.4l1.9,7.1c0,0.1,0.1,0.3,0.2,0.4
				c0.1,0.1,0.3,0.1,0.4,0.1c0.2,0,0.3,0,0.4-0.1c0.1-0.1,0.2-0.2,0.3-0.4l1.6-4.6l1.5,4.6c0.1,0.1,0.2,0.3,0.3,0.4
				c0.1,0.1,0.2,0.1,0.4,0.1c0.2,0,0.3-0.1,0.5-0.1c0.1-0.1,0.2-0.2,0.3-0.4l1.8-7.1h-1.5l-1.2,4.7l-1.5-4.3c0-0.1-0.1-0.2-0.2-0.3
				c-0.1-0.1-0.3-0.1-0.4-0.1C107,138.4,106.9,138.5,106.8,138.6 M99.9,138.9c-0.6-0.4-1.3-0.6-2.1-0.6c-0.8,0-1.4,0.2-2,0.6
				c-0.6,0.3-1.1,0.8-1.3,1.4c-0.3,0.6-0.5,1.2-0.5,1.9c0,0.7,0.2,1.4,0.5,2c0.3,0.6,0.8,1.1,1.3,1.4c0.6,0.3,1.2,0.5,2,0.5
				c0.8,0,1.4-0.2,2.1-0.5c0.6-0.3,1-0.8,1.3-1.4s0.5-1.3,0.5-2c0-0.7-0.2-1.4-0.5-1.9C100.9,139.8,100.5,139.3,99.9,138.9
				 M100,140.9c0.2,0.4,0.3,0.9,0.3,1.4c0,0.5-0.1,1-0.3,1.3c-0.2,0.4-0.5,0.7-0.8,1c-0.4,0.2-0.8,0.3-1.3,0.3
				c-0.5,0-0.9-0.1-1.3-0.3c-0.4-0.2-0.6-0.6-0.8-1c-0.2-0.4-0.3-0.8-0.3-1.3c0-0.5,0.1-1,0.3-1.4s0.5-0.7,0.8-0.9
				c0.3-0.2,0.8-0.4,1.3-0.4s0.9,0.1,1.3,0.4C99.5,140.3,99.8,140.6,100,140.9 M87.2,138.7c-0.1-0.1-0.2-0.2-0.3-0.2
				c-0.1,0-0.2-0.1-0.3-0.1c-0.2,0-0.4,0.1-0.5,0.2c-0.1,0.1-0.2,0.3-0.2,0.5v7h1.5v-5.1l3.8,4.8c0.1,0.1,0.2,0.2,0.3,0.3
				c0.1,0,0.2,0,0.4,0c0.2,0,0.3-0.1,0.4-0.3c0.1-0.1,0.2-0.2,0.2-0.4v-6.9h-1.5v5.1L87.2,138.7 M80.9,138.9
				c-0.4-0.2-0.8-0.4-1.3-0.4h-3.1c-0.2,0-0.4,0.1-0.6,0.2c-0.1,0.2-0.2,0.4-0.2,0.6v6.9h1.4v-2.8h2.4c0.5,0,0.9-0.1,1.3-0.4
				c0.4-0.2,0.7-0.5,0.9-0.9c0.2-0.4,0.3-0.8,0.3-1.3c0-0.4-0.1-0.8-0.3-1.2C81.6,139.3,81.3,139.1,80.9,138.9 M77.2,142.1v-2.4h2.2
				c0.2,0,0.4,0.1,0.6,0.1c0.2,0.1,0.3,0.2,0.4,0.4c0.1,0.2,0.2,0.4,0.2,0.6c0,0.3-0.1,0.5-0.2,0.7c-0.1,0.2-0.2,0.3-0.4,0.4
				c-0.2,0.1-0.4,0.2-0.6,0.2H77.2 M68.6,138.5h-1.4v4.6c0,0.6,0.1,1.1,0.4,1.6c0.3,0.5,0.6,0.9,1.1,1.1c0.5,0.3,1.1,0.4,1.8,0.4
				c0.7,0,1.3-0.1,1.8-0.4c0.5-0.3,0.9-0.6,1.2-1.1c0.3-0.5,0.4-1,0.4-1.6v-4.6h-1.4v4.6c0,0.6-0.2,1-0.5,1.3s-0.8,0.5-1.4,0.6
				c-0.6,0-1-0.2-1.3-0.6c-0.3-0.3-0.5-0.8-0.5-1.3V138.5 M56.3,138.6c-0.1,0.1-0.2,0.3-0.2,0.5v7h1.5v-5.1l3.8,4.8
				c0.1,0.1,0.2,0.2,0.3,0.3c0.1,0,0.2,0,0.3,0c0.2,0,0.3-0.1,0.5-0.3c0.1-0.1,0.2-0.2,0.2-0.4v-6.9h-1.5v5.1l-3.8-4.9
				c-0.1-0.1-0.2-0.2-0.3-0.2c-0.1,0-0.2-0.1-0.3-0.1C56.6,138.4,56.4,138.5,56.3,138.6 M45.5,138.5H44v7.6h1.5V138.5 M42.2,138.8
				c-0.2-0.1-0.5-0.1-0.8-0.1c-0.3-0.1-0.6-0.1-0.9-0.2c-0.3,0-0.7-0.1-1-0.1c-1,0-1.8,0.2-2.3,0.5c-0.5,0.3-0.7,0.8-0.7,1.5
				c0,0.3,0.1,0.6,0.3,0.9c0.1,0.3,0.4,0.5,0.7,0.8c0.3,0.2,0.8,0.4,1.3,0.6c0.5,0.2,0.9,0.4,1.3,0.6c0.3,0.2,0.6,0.3,0.7,0.4
				c0.2,0.1,0.2,0.3,0.2,0.4c0,0.3-0.1,0.5-0.4,0.6c-0.3,0.2-0.7,0.3-1.2,0.3c-0.4,0-0.9-0.1-1.3-0.1c-0.5-0.1-1-0.2-1.4-0.4
				l-0.3,1.1c0.5,0.2,1,0.3,1.5,0.4c0.5,0.1,1,0.1,1.5,0.1c0.6,0,1.1-0.1,1.6-0.3c0.5-0.2,0.8-0.4,1.1-0.7c0.2-0.3,0.4-0.7,0.4-1.2
				c0-0.4-0.1-0.7-0.3-0.9c-0.2-0.3-0.5-0.5-0.8-0.7c-0.4-0.2-0.8-0.4-1.3-0.6c-0.5-0.3-1-0.5-1.3-0.6c-0.3-0.2-0.5-0.3-0.6-0.4
				c-0.1-0.1-0.1-0.3-0.1-0.4c0-0.2,0.1-0.4,0.3-0.5c0.2-0.1,0.6-0.2,1.2-0.2c0.4,0,0.8,0,1.2,0.1c0.4,0,0.9,0.1,1.3,0.2L42.2,138.8
				 M48.5,142.3c0-0.5,0.1-1,0.4-1.4c0.2-0.4,0.6-0.7,1-0.9c0.4-0.2,0.9-0.3,1.5-0.4c0.4,0,0.7,0,1,0.1c0.4,0.1,0.7,0.2,1,0.3
				l0.3-1.1c-0.3-0.1-0.7-0.3-1.2-0.4c-0.4-0.1-0.9-0.1-1.4-0.1c-0.8,0-1.5,0.2-2.2,0.5c-0.6,0.3-1.1,0.8-1.5,1.3
				c-0.3,0.6-0.5,1.3-0.5,2.1c0,0.8,0.2,1.4,0.5,2.1c0.4,0.6,0.9,1,1.5,1.3c0.6,0.3,1.3,0.5,2,0.5c0.7,0,1.4-0.1,1.9-0.4
				c0.6-0.3,1-0.7,1.3-1.2v-2.2h-1.5v1.8c-0.2,0.2-0.4,0.4-0.7,0.5c-0.3,0.1-0.7,0.2-1.1,0.2c-0.5,0-1-0.1-1.3-0.3
				c-0.4-0.2-0.7-0.5-0.9-0.9C48.6,143.3,48.5,142.8,48.5,142.3z"/>
		</g>
	</g>
</g>
</svg>
