
<svg xmlns="http://www.w3.org/2000/svg" version="1.1" xmlns:xlink="http://www.w3.org/1999/xlink" preserveAspectRatio="none" x="0px" y="0px" width="108px" height="108px" viewBox="0 0 108 108">
<defs>
<filter id="Filter_1" x="-20%" y="-20%" width="140%" height="140%" color-interpolation-filters="sRGB">
<feColorMatrix in="SourceGraphic" type="matrix" values="1 0 0 0 0 0 1 0 0 0 0 0 1 0 0 0 0 0 0.3 0" result="result1"/>
</filter>

<g id="flash0_ai_1_Layer_1__Path__1_0_Layer0_0_FILL">
<path fill="#F47B3B" stroke="none" d="
M 80.65 40.3
Q 80.65 23.6 68.85 11.8 57 0 40.3 0 23.6 0 11.8 11.8 0 23.6 0 40.3 0 57 11.8 68.8 23.6 80.6 40.3 80.6 57 80.6 68.85 68.8 80.65 57 80.65 40.3 Z"/>
</g>
</defs>

<g transform="matrix( 1, 0, 0, 1, 15.2,13.7) ">
<g transform="matrix( 1, 0, 0, 1, 0,0) ">
<use filter="url(#Filter_1)" xlink:href="#flash0_ai_1_Layer_1__Path__1_0_Layer0_0_FILL"/>
</g>
</g>
</svg>
